{
  "_class": "group",
  "do_objectID": "F451D121-E3A2-43EC-B687-E33DD86D4347",
  "exportOptions": {
    "_class": "exportOptions",
    "exportFormats": [
    ],
    "includedLayerIds": [
    ],
    "layerOptions": 0,
    "shouldTrim": false
  },
  "frame": {
    "_class": "rect",
    "constrainProportions": false,
    "height": 40,
    "width": 220,
    "x": 0,
    "y": 0
  },
  "hasClickThrough": false,
  "isFlippedHorizontal": false,
  "isFlippedVertical": false,
  "isLocked": false,
  "isVisible": true,
  "layerListExpandedType": 0,
  "layers": [
    {
      "class": "shapeGroup",
      "id": "62FA34B9-4A35-4FED-AAAF-CA339CDB8B25"
    },
    {
      "class": "text",
      "id": "BB0B75DD-C491-4EF3-9BBF-12D8C5722992"
    },
    {
      "class": "group",
      "id": "8A72CF25-09C7-4571-8D1E-148E9181F0AA"
    }
  ],
  "name": "💡tab",
  "nameIsFixed": false,
  "resizingConstraint": 63,
  "resizingType": 0,
  "rotation": 0,
  "shouldBreakMaskChain": false,
  "style": {
    "_class": "style",
    "endDecorationType": 0,
    "miterLimit": 10,
    "startDecorationType": 0
  }
}