{
  "_class": "shapePath",
  "booleanOperation": -1,
  "do_objectID": "F0A408B4-B22E-454B-8868-5804050AB461",
  "edited": true,
  "exportOptions": {
    "_class": "exportOptions",
    "exportFormats": [
    ],
    "includedLayerIds": [
    ],
    "layerOptions": 0,
    "shouldTrim": false
  },
  "frame": {
    "_class": "rect",
    "constrainProportions": false,
    "height": 14,
    "width": 13.99999999999998,
    "x": 0,
    "y": 0
  },
  "isFlippedHorizontal": false,
  "isFlippedVertical": false,
  "isLocked": false,
  "isVisible": true,
  "layerListExpandedType": 0,
  "name": "Path",
  "nameIsFixed": false,
  "path": {
    "_class": "path",
    "isClosed": true,
    "pointRadiusBehaviour": 1,
    "points": [
      {
        "_class": "curvePoint",
        "cornerRadius": 0,
        "curveFrom": "{0.43265964535704959, 0.81543366123209193}",
        "curveMode": 4,
        "curveTo": "{0.58147918541691479, 0.7322367805003922}",
        "hasCurveFrom": true,
        "hasCurveTo": false,
        "point": "{0.58147918541691479, 0.7322367805003922}"
      },
      {
        "_class": "curvePoint",
        "cornerRadius": 0,
        "curveFrom": "{-0.038161346978847065, 0.51461650166052175}",
        "curveMode": 3,
        "curveTo": "{0.24099751561789609, 0.79377536425726447}",
        "hasCurveFrom": true,
        "hasCurveTo": true,
        "point": "{0.11448404093654112, 0.66726188957590971}"
      },
      {
        "_class": "curvePoint",
        "cornerRadius": 0,
        "curveFrom": "{0.26712942885192936, -0.038161346978846995}",
        "curveMode": 2,
        "curveTo": "{-0.038161346978847044, 0.26712942885192897}",
        "hasCurveFrom": true,
        "hasCurveTo": true,
        "point": "{0.11448404093654119, 0.11448404093654099}"
      },
      {
        "_class": "curvePoint",
        "cornerRadius": 0,
        "curveFrom": "{0.79377536425726603, 0.24099751561789634}",
        "curveMode": 3,
        "curveTo": "{0.51461650166052253, -0.038161346978846995}",
        "hasCurveFrom": true,
        "hasCurveTo": true,
        "point": "{0.66726188957591059, 0.11448404093654106}"
      },
      {
        "_class": "curvePoint",
        "cornerRadius": 0,
        "curveFrom": "{0.7322367805003922, 0.5814791854169159}",
        "curveMode": 4,
        "curveTo": "{0.81543366123209349, 0.43265964535705054}",
        "hasCurveFrom": false,
        "hasCurveTo": true,
        "point": "{0.7322367805003922, 0.5814791854169159}"
      },
      {
        "_class": "curvePoint",
        "cornerRadius": 0,
        "curveFrom": "{1.0104076400857205, 0.85965004500225617}",
        "curveMode": 4,
        "curveTo": "{0.96877707974283889, 0.81801948465937468}",
        "hasCurveFrom": true,
        "hasCurveTo": false,
        "point": "{0.96877707974283889, 0.81801948465937468}"
      },
      {
        "_class": "curvePoint",
        "cornerRadius": 0,
        "curveFrom": "{0.92714651939995729, 1.0104076400857205}",
        "curveMode": 2,
        "curveTo": "{1.0104076400857205, 0.92714651939995729}",
        "hasCurveFrom": true,
        "hasCurveTo": true,
        "point": "{0.96877707974283889, 0.968777079742839}"
      },
      {
        "_class": "curvePoint",
        "cornerRadius": 0,
        "curveFrom": "{0.81801948465937446, 0.968777079742839}",
        "curveMode": 4,
        "curveTo": "{0.85965004500225595, 1.0104076400857205}",
        "hasCurveFrom": false,
        "hasCurveTo": true,
        "point": "{0.81801948465937446, 0.968777079742839}"
      },
      {
        "_class": "curvePoint",
        "cornerRadius": 0,
        "curveFrom": "{0.58147918541692267, 0.73223678050038743}",
        "curveMode": 1,
        "curveTo": "{0.58147918541692267, 0.73223678050038743}",
        "hasCurveFrom": false,
        "hasCurveTo": false,
        "point": "{0.58147918541692267, 0.73223678050038743}"
      }
    ]
  },
  "resizingConstraint": 63,
  "resizingType": 0,
  "rotation": 0,
  "shouldBreakMaskChain": false
}