{
  "_class": "group",
  "do_objectID": "3FFCB766-F9E7-488D-B1EB-DC181F1E0A50",
  "exportOptions": {
    "_class": "exportOptions",
    "exportFormats": [
    ],
    "includedLayerIds": [
    ],
    "layerOptions": 0,
    "shouldTrim": false
  },
  "frame": {
    "_class": "rect",
    "constrainProportions": false,
    "height": 28,
    "width": 527,
    "x": 607,
    "y": 1452
  },
  "hasClickThrough": false,
  "isFlippedHorizontal": false,
  "isFlippedVertical": false,
  "isLocked": false,
  "isVisible": true,
  "layerListExpandedType": 2,
  "layers": [
    {
      "class": "shapeGroup",
      "id": "CA887AF7-7499-4582-ACB2-A2FDE78FF29B"
    },
    {
      "class": "shapeGroup",
      "id": "9BE7ED45-9346-4051-BBA8-7EB6BF1B8AD1"
    },
    {
      "class": "shapeGroup",
      "id": "241AEEC2-0C24-4674-A930-845B2E8606AD"
    },
    {
      "class": "shapeGroup",
      "id": "3B93004D-0683-4C98-B999-6DC0164EB32D"
    },
    {
      "class": "text",
      "id": "03AFDE59-52C0-4EC3-886F-F1648FCA4AA3"
    }
  ],
  "name": "new_epic copy 17",
  "nameIsFixed": true,
  "resizingConstraint": 63,
  "resizingType": 0,
  "rotation": 0,
  "shouldBreakMaskChain": false,
  "style": {
    "_class": "style",
    "endDecorationType": 0,
    "miterLimit": 10,
    "startDecorationType": 0
  }
}