{
  "_class": "group",
  "do_objectID": "B2E20CDF-FB7F-49F5-9D7D-DA350C92A142",
  "exportOptions": {
    "_class": "exportOptions",
    "exportFormats": [
    ],
    "includedLayerIds": [
    ],
    "layerOptions": 0,
    "shouldTrim": false
  },
  "frame": {
    "_class": "rect",
    "constrainProportions": false,
    "height": 706,
    "width": 1295,
    "x": 206,
    "y": 95
  },
  "hasClickThrough": false,
  "isFlippedHorizontal": false,
  "isFlippedVertical": false,
  "isLocked": false,
  "isVisible": true,
  "layerListExpandedType": 2,
  "layers": [
    {
      "class": "group",
      "id": "B6A85E07-36D5-4A08-A3A6-1D92DB72F546"
    },
    {
      "class": "group",
      "id": "84241E2F-64C5-4835-938F-35809BAF2A6D"
    }
  ],
  "name": "ganttchart",
  "nameIsFixed": true,
  "resizingConstraint": 63,
  "resizingType": 0,
  "rotation": 0,
  "shouldBreakMaskChain": false,
  "style": {
    "_class": "style",
    "endDecorationType": 0,
    "miterLimit": 10,
    "startDecorationType": 0
  }
}