{
  "_class": "group",
  "do_objectID": "D0360706-2C8C-46B0-A563-F5606AA46EA8",
  "exportOptions": {
    "_class": "exportOptions",
    "exportFormats": [
    ],
    "includedLayerIds": [
    ],
    "layerOptions": 0,
    "shouldTrim": false
  },
  "frame": {
    "_class": "rect",
    "constrainProportions": false,
    "height": 28,
    "width": 96,
    "x": 0.5,
    "y": 0
  },
  "hasClickThrough": false,
  "isFlippedHorizontal": false,
  "isFlippedVertical": false,
  "isLocked": false,
  "isVisible": true,
  "layerListExpandedType": 0,
  "layers": [
    {
      "class": "shapeGroup",
      "id": "B81ABCC6-4929-4DE6-B1E9-7D105C13E8C5"
    },
    {
      "class": "shapeGroup",
      "id": "D08FB38F-E5CF-4AE4-A0EF-8015BA083BE9"
    },
    {
      "class": "text",
      "id": "938771CE-853A-4F43-805E-5315D604373C"
    }
  ],
  "name": "global-components/tooltips/top",
  "nameIsFixed": false,
  "resizingConstraint": 63,
  "resizingType": 0,
  "rotation": 0,
  "shouldBreakMaskChain": false,
  "style": {
    "_class": "style",
    "endDecorationType": 0,
    "miterLimit": 10,
    "startDecorationType": 0
  }
}